skin_type_id;ingredient
OSPW;Benzoyl Peroxide
OSPW;Retinol
OSPW;Salicylic Acid
OSPW;Tea Tree Oil
OSPW;Zinc
OSPW;Aloe Vera
OSPW;Arnica
OSPW;Calendula
OSPW;Chamomile
OSPW;Colloidal Oatmeal
OSPW;Cucumber
OSPW;Vitamin B5
OSPW;Epilobium Angustifolium
OSPW;Willowherb
OSPW;Evening Primrose
OSPW;Feverfew
OSPW;Green Tea
OSPW;Licochalone
OSPW;Perilla
OSPW;Pine Extract
OSPW;Algae
OSPW;Thyme
OSPW;Trifolium Pretense (Red Clover)
OSPW;Arbutin
OSPW;BHA
OSPW;Glycyrrhiza Glabra
OSPW;Licorice Extract
OSPW;Hydroquinone
OSPW;Mulberry
OSPW;Niacinamide
OSPW;Alpha Lipoic Acid
OSPW;Basil
OSPW;Caffeine
OSPW;Carrot
OSPW;Ubiquinone
OSPW;Copper
OSPW;Curcumin
OSPW;Turmeric
OSPW;Ferulic Acid
OSPW;Ginger
OSPW;Ginseng
OSPW;Grape Seed
OSPW;Green Tea
OSPW;White Tea
OSPW;Idebenone
OSPW;Lutein
OSPW;Lycopene
OSPW;Punica Granatum 
OSPW;Pomegranate
OSPW;Rosemary
OSPW;Silymarin
OSPW;Trifolium Pretense, Fabaceae (Red C
OSPW;Yucca
OSPT;Aloe Vera
OSPT;Arctium Lappa
OSPT;Boswellia Serrata
OSPT;Chamomile
OSPT;Cucumber
OSPT;Vitamin B5
OSPT;Glycyrrhiza Glabra
OSPT;Licorice Extract
OSPT;Licochalone
OSPT;Mallow
OSPT;Niacinamide
OSPT;Algae
OSPT;Rose Water
OSPT;Salicylic Acid (Beta Hydroxy Acid, 
OSPT;Silymarin
OSPT;Sulfacetamide
OSPT;Sulfur
OSPT;Tea Tree Oil
OSPT;Zinc
OSPT;Azelaic Acid
OSPT;Benzoyl Peroxide 
OSPT;Resorcinol
OSPT;Retinol
OSPT;Arbutin
OSPT;Arbutin
OSPT;Cucumber
OSPT;Epilobium Angustifolium
OSPT;Willowherb
OSPT;Kojic Acid
OSPT;Mulberry
OSNW;Basil
OSNW;Caffeine
OSNW;Green Tea
OSNW;White Tea
OSNW;Ubiquinone
OSNW;Feverfew
OSNW;Genistein
OSNW;Ginger
OSNW;Ginseng
OSNW;Grape Seed
OSNW;Idebenone
OSNW;Lutein
OSNW;Lycopene
OSNW;Punica Granatum 
OSNW;Pomegranate
OSNW;Pine Extract
OSNW;Silymarin
OSNW;Yucca
OSNW;Aloe Vera
OSNW;Arctium Lappa
OSNW;Boswellia Serrata
OSNW;Chamomile
OSNW;Vitamin B5
OSNW;Epilobium Angustifolium
OSNW;Willowherb
OSNW;Licochalone
OSNW;Mallow
OSNW;Niacinamide
OSNW;Algae
OSNW;Salicylic Acid
OSNW;BHA
OSNW;Sulfacetamide
OSNW;Sulfur
OSNW;Tea Tree Oil
OSNW;Zinc
OSNW;Retinol
OSNT;Aloe Vera
OSNT;Chamomile
OSNT;Cucumber
OSNT;Vitamin B5
OSNT;Feverfew
OSNT;Glycyrrhiza Glabra
OSNT;Licorice Extract
OSNT;Licochalone
OSNT;Niacinamide
OSNT;Salicylic Acid (Beta Hydroxy Acid, 
OSNT;Tea Tree Oil
OSNT;Zinc
ORPW;Ala
ORPW;Caffeine
ORPW;Ubiquinone
ORPW;Copper
ORPW;Ginseng
ORPW;Grape Seed
ORPW;Green Tea
ORPW;Idebenone
ORPW;Lutein
ORPW;Lycopene
ORPW;Moringa
ORPW;Pine Extract
ORPW;Pomegranate
ORPW;Punica Granatum 
ORPW;Resveratrol
ORPW;Rosemary
ORPW;Vitamin C
ORPW;Vitamin E
ORPW;Alpha Lipoic Acid
ORPW;DMAE
ORPW;Glycolic Acid
ORPW;AHA
ORPW;Lactic Acid
ORPW;Phytic Acid
ORPW;Retinol
ORPW;Salicylic Acid (Beta Hydroxy Acid, 
ORPW;Tgf-Beta
ORPW;Cocos Nucifera
ORPW;Niacinamide
ORPW;Arbutin
ORPW;Arbutin
ORPW;Cucumber
ORPW;Epilobium Angustifolium
ORPW;Willowherb
ORPW;Gallic Acid
ORPW;Glycyrrhiza Glabra
ORPW;Licorice Extract
ORPW;Hydroquinone
ORPW;Kojic Acid
ORPW;Mulberry
ORPW;Pine Extract
ORPW;Resorcinol
ORPW;Saxifraga Sarmentosa
ORPW;Vitamin C
ORPT;Arbutin
ORPT;Arbutin
ORPT;Cucumber
ORPT;Glycyrrhiza Glabra
ORPT;Licorice Extract
ORPT;Hydroquinone
ORPT;Kojic Acid
ORPT;Mulberry
ORPT;Niacinamide
ORPT;Retinol
ORPT;Salicylic Acid
ORPT;Vitamin C
ORPT;Salicylic Acid
ORPT;Retinaldehyde
ORPT;Retinol
ORPT;Citric Acid
ORPT;Glycolic Acid
ORPT;Lactic Acid
ORPT;Phytic Acid
ORNW;Caffeine
ORNW;Ubiquinone
ORNW;Copper
ORNW;Ginseng
ORNW;Grape Seed
ORNW;Green Tea
ORNW;Humulus Lupulus 
ORNW;Idebenone
ORNW;Lutein
ORNW;Lycopene
ORNW;Moringa
ORNW;Pine Extract
ORNW;Pomegranate
ORNW;Punica Granatum 
ORNW;Resveratrol
ORNW;Rosemary
ORNW;Vitamin C 
ORNW;Vitamin E
ORNW;Alpha Lipoic Acid
ORNW;Copper
ORNW;DMAE
ORNW;Glycolic Acid
ORNW;AHA
ORNW;Lactic Acid
ORNW;Phytic Acid
ORNW;Retinol
ORNW;Salicylic Acid
ORNW;BHA
ORNW;TGF-Beta
ORNW;Vitamin C
ORNT;Borage Seed Oil
ORNT;Mineral Oil
ORNT;Other Oils
ORNT;Petrolatum
ORNT;Sunflower Oil
DSPW;Arbutin
DSPW;Cucumber
DSPW;Glycyrrhiza Glabra
DSPW;Licorice Extract
DSPW;Hydroquinone
DSPW;Kojic Acid
DSPW;Magnesium Ascorbyl Phosphate
DSPW;Mulberry
DSPW;Tyrostat
DSPW;Cocos Nucifera
DSPW;Cucumber
DSPW;Niacinamide
DSPW;Pine Extract
DSPW;Saxifraga Sarmentosa
DSPW;Ajuga Turkestanica
DSPW;Aloe Vera
DSPW;Apricot
DSPW;Borage Seed Oil
DSPW;Canola Oil
DSPW;Ceramide
DSPW;Cholesterol
DSPW;Theobroma
DSPW;Colloidal Oatmeal
DSPW;Vitamin B5
DSPW;Dimethicone
DSPW;Evening Primrose
DSPW;Glycerin
DSPW;Jojoba
DSPW;Macadamia
DSPW;Olive Oil
DSPW;Safflower
DSPW;Shea Butter
DSPW;Basil
DSPW;Caffeine
DSPW;Green Tea
DSPW;White Tea
DSPW;Carrot
DSPW;Ubiquinone
DSPW;Copper
DSPW;Curcumin
DSPW;Turmeric
DSPW;Ferulic Acid
DSPW;Feverfew
DSPW;Ginger
DSPW;Ginseng
DSPW;Grape Seed
DSPW;Idebenone
DSPW;Lutein
DSPW;Lycopene
DSPW;Punica Granatum 
DSPW;Pomegranate
DSPW;Pine Extract
DSPW;Rosemary
DSPW;Silymarin
DSPW;Yucca
DSPW;Copper
DSPW;Ginkgo Biloba
DSPW;Vitamin C
DSPW;Aloe Vera
DSPW;Chamomile
DSPW;Colloidal Oatmeal
DSPW;Cucumber
DSPW;Vitamin B5
DSPW;Epilobium Angustifolium
DSPW;Willowherb
DSPW;Evening Primrose
DSPW;Feverfew
DSPW;Green Tea
DSPW;Licochalone
DSPW;Mirabilis
DSPW;Perilla
DSPW;Pine Extract
DSPW;Algae
DSPW;Thyme
DSPW;Trifolium Pretense (Red Clover)
DSPW;Zinc
DSPT;Cocos Nucifera
DSPT;Niacinamide
DSPT;Pine Extract
DSPT;Soy
DSPT;Arbutin
DSPT;Cucumber
DSPT;Licorice Extract
DSPT;Glycyrrhiza Glabra
DSPT;Hydroquinone
DSPT;Mulberry
DSPT;Aloe Vera
DSPT;Chamomile
DSPT;Colloidal Oatmeal
DSPT;Willowherb
DSPT;Vitamin B5
DSPT;Epilobium Angustifolium
DSPT;Evening Primrose
DSPT;Feverfew
DSPT;Licochalone
DSPT;Perilla
DSPT;Pine Extract
DSPT;Algae
DSPT;Thyme
DSPT;Trifolium Pretense (Red Clover)
DSPT;Borage Seed Oil
DSPT;Castor Oil
DSPT;Ceramide
DSPT;Cholesterol
DSPT;Theobroma
DSPT;Colloidal Oatmeal
DSPT;Vitamin B5
DSPT;Dimethicone
DSPT;Evening Primrose
DSPT;Glycerin
DSPT;Jojoba
DSPT;Olive Oil
DSPT;Pumpkin Seed Oil
DSPT;Safflower
DSPT;Shea Butter
DSPT;Sunflower Oil
DSNW;Basil
DSNW;Caffeine
DSNW;Green Tea
DSNW;White Tea
DSNW;Carrot
DSNW;Ubiquinone
DSNW;Copper
DSNW;Curcumin
DSNW;Ferulic Acid
DSNW;Turmeric
DSNW;Soy
DSNW;Ginger
DSNW;Ginseng
DSNW;Grape Seed
DSNW;Idebenone
DSNW;Lutein
DSNW;Lycopene
DSNW;Punica Granatum 
DSNW;Pine Extract
DSNW;Rosemary
DSNW;Silymarin
DSNW;Pomegranate
DSNW;Copper
DSNW;Ginkgo Biloba
DSNW;Aloe Vera
DSNW;Chamomile
DSNW;Colloidal Oatmeal
DSNW;Cucumber
DSNW;Vitamin B5
DSNW;Epilobium Angustifolium
DSNW;Evening Primrose Oil
DSNW;Willowherb
DSNW;Green Tea
DSNW;Licochalone
DSNW;Perilla
DSNW;Pine Extract
DSNW;Algae
DSNW;Thyme
DSNW;Trifolium Pretense (Red Clover)
DSNW;Zinc
DSNW;Ajuga Turkestanica
DSNW;Aloe Vera
DSNW;Apricot
DSNW;Borage Seed Oil
DSNW;Canola Oil
DSNW;Ceramide
DSNW;Cholesterol
DSNW;Theobroma
DSNW;Colloidal Oatmeal
DSNW;Vitamin B5
DSNW;Dimethicone
DSNW;Evening Primrose
DSNW;Glycerin
DSNW;Jojoba
DSNW;Macadamia   
DSNW;Olive Oil
DSNW;Safflower
DSNW;Shea Butter
DSNT;Cocos Nucifera
DSNT;Cucumber
DSNT;Niacinamide
DSNT;Pine Extract
DSNT;Saxifraga Sarmentosa
DSNT;Soy
DSNT;Arbutin
DSNT;Cucumber
DSNT;Glycyrrhiza Glabra
DSNT;Licorice Extract
DSNT;Aloe Vera
DSNT;Chamomile
DSNT;Colloidal Oatmeal
DSNT;Cucumber
DSNT;Vitamin B5
DSNT;Epilobium Angustifolium
DSNT;Evening Primrose
DSNT;Willowherb
DSNT;Perilla
DSNT;Pine Extract
DSNT;Algae
DSNT;Thyme
DSNT;Trifolium Pretense (Red Clover)
DSNT;Borage Seed Oil
DSNT;Castor Oil
DSNT;Ceramide
DSNT;Cholesterol
DSNT;Theobroma
DSNT;Colloidal Oatmeal
DSNT;Vitamin B5
DSNT;Dimethicone
DSNT;Evening Primrose
DSNT;Glycerin
DSNT;Jojoba
DSNT;Olive Oil
DSNT;Pumpkin Seed Oil
DSNT;Safflower
DSNT;Stearic Acid
DSNT;Sunflower Oil
DRPW;Basil
DRPW;Caffeine
DRPW;Green Tea
DRPW;Ubiquinone
DRPW;Copper
DRPW;Curcumin
DRPW;Ferulic Acid
DRPW;White Tea
DRPW;Ginger
DRPW;Ginseng
DRPW;Grape Seed
DRPW;Turmeric
DRPW;Lutein
DRPW;Lycopene
DRPW;Punica Granatum 
DRPW;Pine Extract
DRPW;Rosemary
DRPW;Silymarin
DRPW;Vitamin C
DRPW;Vitamin E
DRPW;Pomegranate
DRPW;Glycolic Acid
DRPW;DMAE
DRPW;Retinol
DRPW;Lactic Acid
DRPW;Aloe Vera
DRPW;Borage Seed Oil
DRPW;Ceramide
DRPW;Cholesterol
DRPW;Cocoa Butter
DRPW;Colloidal Oatmeal
DRPW;Vitamin B5
DRPW;Dimethicone
DRPW;Evening Primrose
DRPW;Glycerin
DRPW;Glycolic Acid
DRPW;Jojoba
DRPW;Lactic Acid
DRPW;Linoleic Acid
DRPW;Niacinamide
DRPW;Olive Oil
DRPW;Safflower
DRPW;Shea Butter
DRPW;Cocos Nucifera
DRPW;Cucumber
DRPW;Niacinamide
DRPW;Pine Extract
DRPW;Saxifraga Sarmentosa
DRPW;Arbutin
DRPW;Cucumber
DRPW;Glycyrrhiza Glabra
DRPW;Hydroquinone
DRPW;Kojic Acid
DRPW;Magnesium Ascorbyl Phosphate
DRPW;Mulberry
DRPW;Tyrostat
DRPW;Licorice Extract
DRPT;Ajuga Turkestanica
DRPT;Aloe Vera
DRPT;Licorice Extract
DRPT;Canola Oil
DRPT;Ceramide
DRPT;Cholesterol
DRPT;Theobroma
DRPT;Colloidal Oatmeal
DRPT;Vitamin B5
DRPT;Dimethicone
DRPT;Evening Primrose
DRPT;Glycerin
DRPT;Jojoba
DRPT;Lanolin
DRPT;Macadamia
DRPT;Olive Oil
DRPT;Rose Hip
DRPT;Safflower
DRPT;Shea Butter
DRPT;Arbutin
DRPT;Willowherb
DRPT;Cocos Nucifera
DRPT;Cucumber
DRPT;Epilobium Angustifolium
DRPT;Gallic Acid
DRPT;Glycyrrhiza Glabra
DRPT;Hydroquinone
DRPT;Kojic Acid
DRPT;Mulberry
DRPT;Niacinamide
DRPT;Resorcinol
DRPT;Retinol
DRPT;Salicylic Acid
DRPT;Saxifraga Sarmentosa
DRPT;Vitamin C
DRPT;BHA
DRNW;Basil
DRNW;Caffeine
DRNW;Green Tea
DRNW;Carrot
DRNW;Ubiquinone
DRNW;Copper
DRNW;Curcumin
DRNW;Ferulic Acid
DRNW;White Tea
DRNW;Soy
DRNW;Ginger
DRNW;Ginseng
DRNW;Grape Seed
DRNW;Turmeric
DRNW;Lutein
DRNW;Lycopene
DRNW;Punica Granatum
DRNW;Pomegranate
DRNW;Pine Extract
DRNW;Rosemary
DRNW;Silymarin
DRNW;Lactic Acid
DRNW;Glycolic Acid
DRNW;Citric Acid
DRNW;Gluconolactone
DRNW;Glycolic Acid
DRNW;Lactic Acid
DRNW;Phytic Acid
DRNW;Polyhydroxy Acids
DRNW;Retinol
DRNW;Ajuga Turkestanica
DRNW;Aloe Vera
DRNW;Apricot
DRNW;Borage Seed Oil
DRNW;Canola Oil
DRNW;Ceramide
DRNW;Cholesterol
DRNW;Theobroma
DRNW;Colloidal Oatmeal
DRNW;Vitamin B5
DRNW;Dimethicone
DRNW;Evening Primrose
DRNW;Glycerin
DRNW;Jojoba
DRNW;Macadamia
DRNW;Olive Oil
DRNW;Safflower
DRNW;Shea Butter
DRNT;Beeswax
DRNT;Dimethicone
DRNT;Grape Seed
DRNT;Jojoba
DRNT;Lanolin
DRNT;Mineral Oil
DRNT;Paraffin
DRNT;Petrolatum
DRNT;Propylene Glycol
DRNT;Soy
DRNT;Squalene
DRNT;Lactic Acid
DRNT;Glycerin
DRNT;Hyaluronic Acid
DRNT;Propylene Glycol
DRNT;Sorbitol
DRNT;Saccharide
DRNT;Urea
DRNT;Aloe Vera
DRNT;Glycolic Acid
DRNT;Canola Oil
DRNT;Ceramide
DRNT;Cholesterol
DRNT;Theobroma
DRNT;Colloidal Oatmeal
DRNT;Vitamin B5
DRNT;Evening Primrose
DRNT;Fatty Acids
DRNT;Jojoba
DRNT;Niacinamide
DRNT;Olive Oil
DRNT;Safflower
DRNT;Shea Butter
DRNT;Stearic Acid